…
``` r
steam_data[steam_data == 650560] <- 14.99
```

Now for the NA values I’m wondering if they’re actually free games or if
the value is just missing, if they’re free games then I’ll just replace
the NA for a zero, if not then I’ll just drop those rows.

``` r
steam_data %>%
  filter(is.na(original_price))
```

    ## # A tibble: 1,505 × 9
    ##    name             genre release_date release_month release_year original_price
    ##    <chr>            <chr> <chr>        <ord>                <dbl>          <dbl>
    ##  1 Ori and the Bli… Acti… Mar 11, 2015 Mar                   2015             NA
    ##  2 iRacing          Mass… Jan 12, 2015 Jan                   2015             NA
    ##  3 UNO              Casu… Dec 8, 2016  Dec                   2016             NA
    ##  4 Operation: New … Free… Dec 14, 2016 Dec                   2016             NA
    ##  5 The Horus Heres… Free… Mar 28, 2019 Mar                   2019             NA
    ##  6 Houdini Indie    Anim… Oct 10, 2018 Oct                   2018             NA
    ##  7 SpeedRunners     Acti… Apr 19, 2016 Apr                   2016             NA
    ##  8 Sentinels of th… Indi… Dec 22, 2014 Dec                   2014             NA
    ##  9 Mafia III        Acti… Oct 6, 2016  Oct                   2016             NA
    ## 10 STEINS;GATE ELI… Adve… Feb 19, 2019 Feb                   2019             NA
    ## # ℹ 1,495 more rows
    ## # ℹ 3 more variables: all_reviews <chr>, developer <chr>, publisher <chr>
…
However, there seem to be some games above the 500 price-point that act
as outliers, not allowing to see the bulk of the most common prices.

``` r
steam_data %>% filter(original_price > 500)
```

    ## # A tibble: 191 × 9
    ##    name             genre release_date release_month release_year original_price
    ##    <chr>            <chr> <chr>        <ord>                <dbl>          <dbl>
    ##  1 VEGAS Pro 14 Ed… Vide… Sep 30, 2016 Sep                   2016           598 
    ##  2 Choice of Robots Indi… Dec 19, 2014 Dec                   2014           502.
    ##  3 Choice of the P… Adve… May 20, 2016 May                   2016           502.
    ##  4 A Wise Use of T… Indi… Sep 4, 2015  Sep                   2015           502.
    ##  5 Choice of Magics Adve… Aug 10, 2018 Aug                   2018           502.
    ##  6 I, Cyborg        Adve… Jun 28, 2018 Jun                   2018           502.
    ##  7 Psy High         Indi… Dec 12, 2014 Dec                   2014           502.
    ##  8 The Hero of Ken… Indi… Mar 13, 2015 Mar                   2015           502.
    ##  9 Choice of Alexa… Adve… Jun 10, 2016 Jun                   2016           502.
    ## 10 Creatures Such … Adve… Dec 12, 2014 Dec                   2014           502.
    ## # ℹ 181 more rows
    ## # ℹ 3 more variables: all_reviews <chr>, developer <chr>, publisher <chr>
…
