…
``` r
steam_rq1 <- steam_rq1 %>%
  mutate(release_year = year(release_date)) 

steam_rq1 %>% 
  #separating the genres and tags created repeated columns per game release, so to get the number of releases per year we need to remove the duplicated columns
  select(appid, release_year) %>%
  distinct() %>% 
  count(release_year)
```

    ## # A tibble: 23 × 2
    ##    release_year     n
    ##           <dbl> <int>
    ##  1         1997     1
    ##  2         1998     1
    ##  3         1999     2
    ##  4         2000     2
    ##  5         2001     4
    ##  6         2002     1
    ##  7         2003     3
    ##  8         2004     6
    ##  9         2005     6
    ## 10         2006    48
    ## # ℹ 13 more rows

Now to get the number of occurrences for the other two categorical
variables:

``` r
steam_rq1 %>%
  count(genres, sort = TRUE) 
```

    ## # A tibble: 29 × 2
    ##    genres           n
    ##    <chr>        <int>
    ##  1 Indie        56824
    ##  2 Action       35066
    ##  3 Adventure    29751
    ##  4 Casual       29618
    ##  5 Strategy     15388
    ##  6 Simulation   15246
    ##  7 RPG          12818
    ##  8 Early Access  8807
    ##  9 Free to Play  5089
    ## 10 Sports        3884
    ## # ℹ 19 more rows

``` r
steam_rq1 %>%
  count(steamspy_tags, sort = TRUE)
```

    ## # A tibble: 339 × 2
    ##    steamspy_tags     n
    ##    <chr>         <int>
    ##  1 Indie         47254
    ##  2 Action        32112
    ##  3 Casual        24107
    ##  4 Adventure     23789
    ##  5 Strategy      12771
    ##  6 Early Access  12355
    ##  7 Simulation     9800
    ##  8 RPG            8902
    ##  9 Free to Play   6184
    ## 10 Racing         2436
    ## # ℹ 329 more rows

The data that helps answer the research question is also obtained the
same way:

``` r
steam_rq1 %>%
  select(appid, release_year, genres) %>%
  distinct() %>%
  count(release_year,genres)
```

    ## # A tibble: 280 × 3
    ##    release_year genres       n
    ##           <dbl> <chr>    <int>
    ##  1         1997 Action       1
    ##  2         1997 Indie        1
    ##  3         1997 Racing       1
    ##  4         1998 Action       1
    ##  5         1999 Action       2
    ##  6         2000 Action       2
    ##  7         2001 Action       3
    ##  8         2001 Indie        1
    ##  9         2001 RPG          2
    ## 10         2001 Strategy     1
    ## # ℹ 270 more rows

``` r
steam_rq1 %>%
  select(appid, release_year, steamspy_tags) %>%
  distinct() %>%
  count(release_year, steamspy_tags)
```

    ## # A tibble: 2,267 × 3
    ##    release_year steamspy_tags     n
    ##           <dbl> <chr>         <int>
    ##  1         1997 Action            1
    ##  2         1997 Classic           1
    ##  3         1997 Racing            1
    ##  4         1998 Action            1
    ##  5         1998 Classic           1
    ##  6         1998 FPS               1
    ##  7         1999 Action            2
    ##  8         1999 FPS               2
    ##  9         1999 Multiplayer       1
    ## 10         1999 Sci-fi            1
    ## # ℹ 2,257 more rows
…
For merging `genres` and `steamspy_tags` into `game_type` I will use
`pivot_longer`:

``` r
(steam_rq2_longer <- steam_rq2 %>%
  pivot_longer(cols = c(genres, steamspy_tags),
               names_to = "category",
               values_to = "game_type") %>%
  select(developer, game_type, name, appid) %>%
  distinct()) #for removing duplicated rows
```

    ## # A tibble: 35,077 × 4
    ##    developer game_type    name                  appid
    ##    <chr>     <chr>        <chr>                 <dbl>
    ##  1 Valve     Action       Counter-Strike           10
    ##  2 Valve     FPS          Counter-Strike           10
    ##  3 Valve     Multiplayer  Counter-Strike           10
    ##  4 Valve     Action       Team Fortress Classic    20
    ##  5 Valve     FPS          Team Fortress Classic    20
    ##  6 Valve     Multiplayer  Team Fortress Classic    20
    ##  7 Valve     Action       Day of Defeat            30
    ##  8 Valve     FPS          Day of Defeat            30
    ##  9 Valve     World War II Day of Defeat            30
    ## 10 Valve     Multiplayer  Day of Defeat            30
    ## # ℹ 35,067 more rows

Now we can compute the proportion and count of game types per developer:

``` r
(steam_rq2_gametype_count <- steam_rq2_longer %>% 
  count(game_type, developer) %>% 
  group_by(developer) %>%
  reframe(developer, game_type, n, proportion = n/sum(n)))
```

    ## # A tibble: 26,048 × 4
    ##    developer          game_type       n proportion
    ##    <chr>              <chr>       <int>      <dbl>
    ##  1 +Mpact Games, LLC. Action          1     0.333 
    ##  2 +Mpact Games, LLC. Multiplayer     1     0.333 
    ##  3 +Mpact Games, LLC. Swordplay       1     0.333 
    ##  4 .M.Y.W.            Puzzle          1     0.5   
    ##  5 .M.Y.W.            Strategy        1     0.5   
    ##  6 .dat               RPG             1     0.2   
    ##  7 .dat               Strategy        2     0.4   
    ##  8 .dat               Turn-Based      2     0.4   
    ##  9 07th Expansion     2D Fighter      1     0.0357
    ## 10 07th Expansion     Action          1     0.0357
    ## # ℹ 26,038 more rows
…
That’s way too many developers for the plot. I want to see the
distribution of games per developer, to better understand what I’m
working with and if I should set a cut-off point based on the number of
games.

``` r
(steam_rq2_gamecount <- steam_rq2_longer %>%
  select(developer, appid) %>%
  group_by(developer) %>%
  distinct() %>%
  reframe(n = n()) %>%
  arrange(desc(n)))
```

    ## # A tibble: 7,656 × 2
    ##    developer                      n
    ##    <chr>                      <int>
    ##  1 Feral Interactive (Mac)       41
    ##  2 KOEI TECMO GAMES CO., LTD.    41
    ##  3 Blender Games                 40
    ##  4 Humongous Entertainment       36
    ##  5 Laush Dmitriy Sergeevich      35
    ##  6 Eipix Entertainment           33
    ##  7 Square Enix                   31
    ##  8 HeR Interactive               29
    ##  9 ERS G Studios                 28
    ## 10 Arc System Works              25
    ## # ℹ 7,646 more rows
…
